<?xml version="1.0" encoding="UTF-8"?>
<svg width="14px" height="9px" viewBox="0 0 14 9" version="1.1" xmlns="http://www.w3.org/2000/svg" xmlns:xlink="http://www.w3.org/1999/xlink">
    <!-- Generator: Sketch 52.6 (67491) - http://www.bohemiancoding.com/sketch -->
    <title>right</title>
    <desc>Created with Sketch.</desc>
    <g id="Page-1" stroke="none" stroke-width="1" fill="none" fill-rule="evenodd">
        <g id="Treatments-" transform="translate(-208.000000, -1653.000000)" fill="#15BFAA" fill-rule="nonzero">
            <g id="Group-7-Copy-17" transform="translate(129.000000, 1644.000000)">
                <g id="right" transform="translate(79.000000, 9.000000)">
                    <path d="M13.9145406,4.3011551 L9.53954379,0.0824040729 C9.42560247,-0.0274680243 9.24103229,-0.0274680243 9.12711831,0.0824040729 C9.01317699,0.19227617 9.01317699,0.370254729 9.12711831,0.480100459 L13.0042405,4.21875762 L0.291675568,4.21875762 C0.130456936,4.21875762 0,4.3445555 0,4.50001648 C0,4.65547745 0.130456936,4.78127534 0.291675568,4.78127534 L13.0042405,4.78127534 L9.12711831,8.51990613 C9.01317699,8.62977823 9.01317699,8.80775679 9.12711831,8.91760252 C9.1840753,8.97252538 9.25872369,9 9.33334473,9 C9.40796577,9 9.4825868,8.97252538 9.53957114,8.91760252 L13.9145679,4.69885149 C14.0284819,4.58900576 14.0284819,4.4110272 13.9145406,4.3011551 Z" id="Path"></path>
                </g>
            </g>
        </g>
    </g>
</svg>