<?xml version="1.0" encoding="utf-8"?>
<!-- Generator: Adobe Illustrator 21.1.0, SVG Export Plug-In . SVG Version: 6.00 Build 0)  -->
<svg version="1.1" id="Capa_1" xmlns="http://www.w3.org/2000/svg" xmlns:xlink="http://www.w3.org/1999/xlink" x="0px" y="0px"
	 viewBox="0 0 512 512" style="enable-background:new 0 0 512 512;" xml:space="preserve">
<g transform="matrix(0.904382, 0, 0, 0.904382, 2.57532, 2.57532)">
	<polygon class="st0" points="280.2,36.7 359.3,197 536.2,222.7 408.2,347.5 438.4,523.7 280.2,440.5 122,523.7 152.2,347.5 
		24.2,222.7 201.1,197"/>
</g>
</svg>
